Initial Exploration
…
Quick Clean
Quick Check

v <- v |>
  rename(date = 1) |>
  mutate(date = as_date(date),
         doy = yday(date))

v

# A tibble: 91 × 28
   date       `1998` `1999` `2000` `2001` `2002` `2003` `2004` `2005` `2006`
   <date>      <dbl>  <dbl>  <dbl>  <dbl>  <dbl>  <dbl>  <dbl>  <dbl>  <dbl>
 1 2023-07-23      4     NA      2      4      3      4      3      3      4
 2 2023-07-24      7     NA      0      3      4      5      3      4      2
 3 2023-07-25      4      6      2      3      7      4      5      6      1
 4 2023-07-26      0      4      0      2      6      5      4      6      2
 5 2023-07-27      0      7     NA      9      5      1      1      1      2
 6 2023-07-28      1      4     NA     10      7      6      1      8      2
 7 2023-07-29      0      5      0      2      6      1      3      1      4
 8 2023-07-30      3     34      3      0      2      1      3      4      2
 9 2023-07-31      4     11      4      8      2      7      2      3      2
10 2023-08-01      6      5      0      2      6      5      3      4      3
# ℹ 81 more rows
# ℹ 18 more variables: `2007` <lgl>, `2008` <dbl>, `2009` <dbl>, `2010` <dbl>,
#   `2011` <dbl>, `2012` <dbl>, `2013` <dbl>, `2014` <dbl>, `2015` <dbl>,
#   `2016` <dbl>, `2017` <dbl>, `2018` <dbl>, `2019` <dbl>, `2020` <dbl>,
#   `2021` <dbl>, `2022` <dbl>, `2023` <dbl>, doy <dbl>

Re-arrange
Quick Check

v <- pivot_longer(v, -c(date, doy), names_to = "year", values_to = "count")

v

# A tibble: 2,366 × 4
   date         doy year  count
   <date>     <dbl> <chr> <dbl>
 1 2023-07-23   204 1998      4
 2 2023-07-23   204 1999     NA
 3 2023-07-23   204 2000      2
 4 2023-07-23   204 2001      4
 5 2023-07-23   204 2002      3
 6 2023-07-23   204 2003      4
 7 2023-07-23   204 2004      3
 8 2023-07-23   204 2005      3
 9 2023-07-23   204 2006      4
10 2023-07-23   204 2007     NA
# ℹ 2,356 more rows
…
