Initial Exploration – Vulture Migration on Vancouver Island
…
Quick Clean
Quick Check

v <- rename(v, date = "day/year") %>%
  select(matches("date|\\d{4}")) %>%
  assert(is.numeric, -"date") # make sure we get only numeric data, not summaries

Expect 2023 for all years, as original data doesn’t include year and R must have a year (this is corrected below).

v

# A tibble: 91 × 26
   date                `1998` `1999` `2000` `2001` `2002` `2003` `2004` `2005`
   <dttm>               <dbl>  <dbl>  <dbl>  <dbl>  <dbl>  <dbl>  <dbl>  <dbl>
 1 2023-07-23 00:00:00      4     NA      2      4      3      4      3      3
 2 2023-07-24 00:00:00      7     NA      0      3      4      5      3      4
 3 2023-07-25 00:00:00      4      6      2      3      7      4      5      6
 4 2023-07-26 00:00:00      0      4      0      2      6      5      4      6
 5 2023-07-27 00:00:00      0      7     NA      9      5      1      1      1
 6 2023-07-28 00:00:00      1      4     NA     10      7      6      1      8
 7 2023-07-29 00:00:00      0      5      0      2      6      1      3      1
 8 2023-07-30 00:00:00      3     34      3      0      2      1      3      4
 9 2023-07-31 00:00:00      4     11      4      8      2      7      2      3
10 2023-08-01 00:00:00      6      5      0      2      6      5      3      4
# ℹ 81 more rows
# ℹ 17 more variables: `2006` <dbl>, `2008` <dbl>, `2009` <dbl>, `2010` <dbl>,
#   `2011` <dbl>, `2012` <dbl>, `2013` <dbl>, `2014` <dbl>, `2015` <dbl>,
#   `2016` <dbl>, `2017` <dbl>, `2018` <dbl>, `2019` <dbl>, `2020` <dbl>,
#   `2021` <dbl>, `2022` <dbl>, `2023` <dbl>
…
year(v$date) <- as.integer(v$year)  # Fix years for each date

v <- mutate(v, date = as_date(date), doy = yday(date))

Correct year on all dates now, and verify a couple of random dates.

v %>%
  verify(is.na(count[date == "1999-07-23"])) %>%
  verify(count[date == "2006-08-06"] == 7) %>%
  verify(count[date == "2020-09-26"] == 50) %>%
  verify(count[date == "2023-10-14"] == 54)

# A tibble: 2,366 × 4
   date       year  count   doy
   <date>     <chr> <dbl> <dbl>
 1 1998-07-23 1998      4   204
 2 1999-07-23 1999     NA   204
 3 2000-07-23 2000      2   205
 4 2001-07-23 2001      4   204
 5 2002-07-23 2002      3   204
 6 2003-07-23 2003      4   204
 7 2004-07-23 2004      3   205
 8 2005-07-23 2005      3   204
 9 2006-07-23 2006      4   204
10 2007-07-23 2007     NA   204
# ℹ 2,356 more rows
…
